<?xml version="1.0" encoding="utf-8"?>
<!-- Generator: Adobe Illustrator 16.0.4, SVG Export Plug-In . SVG Version: 6.00 Build 0)  -->
<!DOCTYPE svg PUBLIC "-//W3C//DTD SVG 1.1//EN" "http://www.w3.org/Graphics/SVG/1.1/DTD/svg11.dtd">
<svg version="1.1" id="Capa_1" xmlns="http://www.w3.org/2000/svg" xmlns:xlink="http://www.w3.org/1999/xlink" x="0px" y="0px"
	 width="512px" height="512px" viewBox="0 0 512 512" enable-background="new 0 0 512 512" xml:space="preserve">
<g>
	<g>
		<path fill="#FFFFFF" d="M164.181,512c-15.709,0-31.43-5.797-43.713-17.456c-25.389-24.143-26.401-64.306-2.27-89.706
			l141.94-149.283L118.343,107.307c-24.22-25.311-23.33-65.475,1.992-89.706c25.333-24.231,65.485-23.33,89.706,1.992
			l183.628,191.95c23.408,24.477,23.453,63.026,0.145,87.581L210.196,492.274C197.702,505.369,180.98,512,164.181,512z"/>
	</g>
</g>
</svg>
