<?xml version="1.0" encoding="utf-8"?>
<!-- Generator: Adobe Illustrator 16.0.4, SVG Export Plug-In . SVG Version: 6.00 Build 0)  -->
<!DOCTYPE svg PUBLIC "-//W3C//DTD SVG 1.1//EN" "http://www.w3.org/Graphics/SVG/1.1/DTD/svg11.dtd">
<svg version="1.1" id="Layer_1" xmlns="http://www.w3.org/2000/svg" xmlns:xlink="http://www.w3.org/1999/xlink" x="0px" y="0px"
	 width="141.732px" height="141.732px" viewBox="349.452 -12.697 141.732 141.732"
	 enable-background="new 349.452 -12.697 141.732 141.732" xml:space="preserve">
<g>
	<g>
		<path fill="#00B1D4" d="M487.856,58.168c0,37.297-30.236,67.54-67.535,67.54c-37.303,0-67.542-30.242-67.542-67.54
			c0-37.301,30.237-67.537,67.542-67.537C457.62-9.369,487.856,20.867,487.856,58.168"/>
		<g opacity="0.27">
			<g>
				<g>
					<defs>
						<rect id="SVGID_1_" x="373.126" y="99.753" width="93.515" height="14.515"/>
					</defs>
					<clipPath id="SVGID_2_">
						<use xlink:href="#SVGID_1_"  overflow="visible"/>
					</clipPath>
					<path clip-path="url(#SVGID_2_)" fill="#FFFFFF" d="M385.941,99.76c12.239-0.118,25.87,2.686,36.199,4.262
						c14.093,2.163,32.024,2.411,44.501,0.734c-0.449,0.422-0.908,0.853-1.353,1.272c-0.459,0.415-0.918,0.834-1.387,1.236
						c-0.47,0.403-0.925,0.792-1.394,1.189c-0.025,0.02-0.049,0.032-0.067,0.059c-0.426,0.358-0.873,0.706-1.309,1.037
						c-0.021,0.022-0.034,0.047-0.055,0.054c-0.011,0.02-0.029,0.025-0.044,0.025c-0.469,0.37-0.938,0.736-1.406,1.079
						c-0.489,0.363-0.972,0.721-1.461,1.074c-0.447,0.305-0.896,0.609-1.341,0.915c-0.058,0.039-0.111,0.085-0.167,0.13
						c-0.215,0.144-0.444,0.293-0.664,0.438c-0.283,0.188-0.566,0.356-0.853,0.546c-6.152,1.031-13.141,0.069-18.528-0.398
						c-6.022-0.52-10.983-1.325-19.5-2.592c-8.215-1.222-23.222-3.022-36.592-2.463c-0.646-0.531-1.279-1.072-1.91-1.624
						c-0.014-0.015-0.022-0.025-0.022-0.025c-0.6-0.532-1.188-1.068-1.777-1.627c-0.144-0.13-0.283-0.271-0.426-0.408
						c-0.403-0.384-0.794-0.793-1.187-1.183c-0.166-0.163-0.322-0.324-0.479-0.489c-0.43-0.434-0.842-0.889-1.268-1.338
						c-0.11-0.117-0.218-0.226-0.329-0.331C377.044,100.254,381.393,99.792,385.941,99.76"/>
				</g>
			</g>
		</g>
		<g opacity="0.27">
			<g>
				<g>
					<defs>
						<rect id="SVGID_3_" x="363.78" y="86.908" width="116.341" height="12.246"/>
					</defs>
					<clipPath id="SVGID_4_">
						<use xlink:href="#SVGID_3_"  overflow="visible"/>
					</clipPath>
					<path clip-path="url(#SVGID_4_)" fill="#FFFFFF" d="M387.405,86.908c8.463,0,18.039,0.527,26.634,1.768
						c17.175,2.488,26,3.481,36.449,3.146c9.642-0.308,19.772-2.217,29.632-4.049c-0.225,0.384-0.469,0.761-0.696,1.132
						c-0.034,0.053-0.068,0.089-0.099,0.136c-0.272,0.437-0.546,0.87-0.819,1.3c-0.041,0.072-0.088,0.143-0.129,0.216
						c-0.308,0.463-0.61,0.901-0.917,1.352c-0.427,0.624-0.854,1.247-1.283,1.846c-0.047,0.051-0.093,0.108-0.134,0.161
						c-0.479,0.649-0.962,1.301-1.45,1.944c-5.442,1.058-12.293,2.103-16.732,2.661c-5.006,0.638-15.443,0.826-19.939,0.435
						c-4.49-0.396-13.479-1.44-15.768-1.993c-2.292-0.56-18.858-2.676-27.171-3.272c-8.31-0.593-17.972-0.156-26.949,1.36
						l-0.066,0.009c-0.326-0.435-0.664-0.884-0.982-1.325c-0.012-0.027-0.023-0.032-0.043-0.058
						c-0.129-0.184-0.249-0.372-0.381-0.546c-0.251-0.353-0.502-0.695-0.744-1.061c-0.35-0.504-0.699-1.02-1.035-1.544
						c-0.339-0.517-0.679-1.033-1.003-1.561c0.832-0.15,1.952-0.371,3.662-0.723C371.59,87.435,378.937,86.908,387.405,86.908"/>
				</g>
			</g>
		</g>
		<path fill="#FFFFFF" d="M422.443,96.126c-0.568,1.19-3.009,1.164-3.622,0L397.94,53.514c-0.615-1.167-0.664-3.099-0.112-4.294
			l9.43-20.38c0.556-1.198,2.082-2.198,3.407-2.222h18.007c1.316-0.025,2.879,1.04,3.473,2.219l10.593,20.383
			c0.591,1.179,0.612,3.266,0.046,4.461L422.443,96.126z"/>
		<path fill="#414042" d="M420.318,61.558c4.208,0,7.621-3.415,7.621-7.624c0-4.21-3.413-7.626-7.621-7.626
			c-4.212,0-7.622,3.411-7.622,7.626C412.696,58.143,416.105,61.558,420.318,61.558"/>
		<path fill="#414042" d="M420.197,67.015c-5.116,0-9.75,2.065-13.116,5.405l11.617,23.706c0.612,1.164,3.053,1.19,3.622,0
			l11.237-23.452C430.171,69.189,425.442,67.015,420.197,67.015"/>
		
			<line fill="none" stroke="#FFFFFF" stroke-width="4.2612" stroke-linecap="round" stroke-linejoin="round" stroke-miterlimit="10" x1="410.212" y1="20.225" x2="430.423" y2="20.225"/>
		<g opacity="0.27">
			<g>
				<g>
					<defs>
						<rect id="SVGID_5_" x="349.452" y="-12.697" width="141.732" height="141.732"/>
					</defs>
					<clipPath id="SVGID_6_">
						<use xlink:href="#SVGID_5_"  overflow="visible"/>
					</clipPath>
					<path clip-path="url(#SVGID_6_)" fill="none" stroke="#00869C" stroke-width="6.653" stroke-miterlimit="10" d="
						M487.856,58.168c0,37.297-30.236,67.54-67.535,67.54c-37.303,0-67.542-30.242-67.542-67.54
						c0-37.301,30.237-67.537,67.542-67.537C457.62-9.369,487.856,20.867,487.856,58.168z"/>
				</g>
			</g>
		</g>
		<g opacity="0.27">
			<g>
				<g>
					<defs>
						<rect id="SVGID_7_" x="389.606" y="114.722" width="50.192" height="8.986"/>
					</defs>
					<clipPath id="SVGID_8_">
						<use xlink:href="#SVGID_7_"  overflow="visible"/>
					</clipPath>
					<path clip-path="url(#SVGID_8_)" fill="#FFFFFF" d="M390.665,114.722c2.203-0.025,17.6,1.78,27.973,3.342
						c9.424,1.413,14.358,1.699,21.16,2.889c-0.052,0.019-0.12,0.033-0.171,0.053c-0.34,0.111-0.687,0.209-1.025,0.304
						c-0.238,0.068-0.469,0.146-0.708,0.209c-0.578,0.164-1.168,0.306-1.755,0.449c-0.59,0.142-1.192,0.286-1.781,0.411
						c-0.577,0.122-1.154,0.227-1.742,0.344c-0.68,0.129-1.354,0.232-2.034,0.337c-0.54,0.073-1.087,0.149-1.622,0.215
						c-0.511,0.065-1.015,0.132-1.536,0.176c-0.101,0.013-0.188,0.025-0.282,0.031c-0.298,0.028-0.59,0.047-0.873,0.066
						c-0.318,0.021-0.653,0.045-0.971,0.07c-0.066,0-0.134,0.009-0.196,0.009c-0.514,0.03-1.026,0.051-1.549,0.064h-0.111
						c-0.229,0.014-0.455,0.014-0.685,0.014c-0.395,0.006-0.785,0.006-1.177,0.006c-0.723,0-1.441-0.02-2.152-0.045
						c-0.709-0.014-1.395-0.059-2.092-0.105h-0.077c-0.557-0.044-1.111-0.076-1.658-0.135c-0.467-0.038-0.926-0.105-1.396-0.156
						c-0.556-0.072-1.125-0.137-1.667-0.222c-0.187-0.032-0.358-0.064-0.548-0.095c-0.413-0.067-0.82-0.132-1.232-0.208
						c-0.597-0.112-1.201-0.229-1.799-0.363c-0.052-0.009-0.1-0.016-0.152-0.016c-0.632-0.136-1.264-0.286-1.886-0.442
						c-0.033-0.014-0.076-0.019-0.11-0.03c-0.645-0.162-1.273-0.326-1.908-0.501c-0.666-0.188-1.342-0.396-1.995-0.603
						c-0.609-0.194-1.222-0.41-1.832-0.631c-0.107-0.046-0.207-0.081-0.313-0.111c-0.603-0.221-1.181-0.436-1.769-0.664
						c-0.644-0.265-1.287-0.512-1.929-0.797c-0.44-0.183-0.862-0.391-1.289-0.586c-0.215-0.104-0.436-0.194-0.656-0.305
						c-0.173-0.09-0.36-0.176-0.533-0.267c-0.436-0.2-0.875-0.42-1.301-0.643c-0.622-0.312-1.23-0.649-1.854-0.98
						c-0.61-0.338-1.22-0.688-1.821-1.031C389.933,114.749,390.283,114.722,390.665,114.722"/>
				</g>
			</g>
		</g>
	</g>
</g>
</svg>
